…
dim(out)
. [1] 1446000       4
```

This includes coercing to different types of objects. We can get the
usual R data frames

``` r
as_tibble(out)
. # A tibble: 1,446,000 × 4
.       ID  time    CL IPRED
.    <dbl> <dbl> <dbl> <dbl>
.  1     1   0    1.25 0    
.  2     1   0    1.25 0    
.  3     1   0.5  1.25 0.883
.  4     1   1    1.25 1.40 
.  5     1   1.5  1.25 1.70 
.  6     1   2    1.25 1.87 
.  7     1   2.5  1.25 1.96 
.  8     1   3    1.25 2.01 
.  9     1   3.5  1.25 2.02 
. 10     1   4    1.25 2.02 
. # ℹ 1,445,990 more rows
```
…
dd
. FileSystemDataset (query)
. time: double
. Mean: double
. n: int64
. 
. * Sorted by time [asc]
. See $.data for the source Arrow object
```

``` r
collect(dd)
. # A tibble: 481 × 3
.     time  Mean     n
.    <dbl> <dbl> <int>
.  1   0    0     6000
.  2   0.5  1.12  3000
.  3   1    1.82  3000
.  4   1.5  2.28  3000
.  5   2    2.59  3000
.  6   2.5  2.81  3000
.  7   3    2.95  3000
.  8   3.5  3.05  3000
.  9   4    3.11  3000
. 10   4.5  3.14  3000
. # ℹ 471 more rows
```
…
