…
dim(out)
. [1] 1446000       4
```

This includes coercing to different types of objects. We can get the
usual R data frames

``` r
as_tibble(out)
. # A tibble: 1,446,000 × 4
.       ID  time    CL IPRED
.    <dbl> <dbl> <dbl> <dbl>
.  1     1   0   0.405  0   
.  2     1   0   0.405  0   
.  3     1   0.5 0.405  1.08
.  4     1   1   0.405  1.93
.  5     1   1.5 0.405  2.59
.  6     1   2   0.405  3.11
.  7     1   2.5 0.405  3.51
.  8     1   3   0.405  3.81
.  9     1   3.5 0.405  4.04
. 10     1   4   0.405  4.22
. # ℹ 1,445,990 more rows
```
…
dd
. FileSystemDataset (query)
. time: double
. Mean: double
. n: int64
. 
. * Sorted by time [asc]
. See $.data for the source Arrow object
```

``` r
collect(dd)
. # A tibble: 481 × 3
.     time  Mean     n
.    <dbl> <dbl> <int>
.  1   0    0     6000
.  2   0.5  1.11  3000
.  3   1    1.80  3000
.  4   1.5  2.26  3000
.  5   2    2.57  3000
.  6   2.5  2.78  3000
.  7   3    2.93  3000
.  8   3.5  3.02  3000
.  9   4    3.08  3000
. 10   4.5  3.11  3000
. # ℹ 471 more rows
```
…
