Get Started • mrgsim.ds
…
## # A tibble: 3 × 5
##    dose    P5  Mean Median   P95
##   <dbl> <dbl> <dbl>  <dbl> <dbl>
## 1   100  2.03  3.39   3.42  4.97
## 2   700  7.93 18.6   16.8  35.8 
## 3   300  6.74 10.6   10.3  15.5

If you only want to get your simulated data as an R data frame,
simply coerce to tibble.

as_tibble(out)

## # A tibble: 7,260 × 6
##       ID  TIME    ECL IPRED    DV  dose
##    <dbl> <dbl>  <dbl> <dbl> <dbl> <dbl>
##  1     1   0   -0.140 0     0       100
##  2     1   0   -0.140 0     0       100
##  3     1   0.5 -0.140 0.749 0.749   100
##  4     1   1   -0.140 1.27  1.27    100
##  5     1   1.5 -0.140 1.62  1.62    100
##  6     1   2   -0.140 1.86  1.86    100
##  7     1   2.5 -0.140 2.01  2.01    100
##  8     1   3   -0.140 2.12  2.12    100
##  9     1   3.5 -0.140 2.18  2.18    100
## 10     1   4   -0.140 2.22  2.22    100
## # ℹ 7,250 more rows
…
