…
If you only want to get your simulated data as an R data frame, simply
coerce to `tibble`.

``` r

as_tibble(out)
```

    ## # A tibble: 7,260 × 6
    ##       ID  TIME    ECL IPRED    DV  dose
    ##    <dbl> <dbl>  <dbl> <dbl> <dbl> <dbl>
    ##  1     1   0   -0.140 0     0       100
    ##  2     1   0   -0.140 0     0       100
    ##  3     1   0.5 -0.140 0.749 0.749   100
    ##  4     1   1   -0.140 1.27  1.27    100
    ##  5     1   1.5 -0.140 1.62  1.62    100
    ##  6     1   2   -0.140 1.86  1.86    100
    ##  7     1   2.5 -0.140 2.01  2.01    100
    ##  8     1   3   -0.140 2.12  2.12    100
    ##  9     1   3.5 -0.140 2.18  2.18    100
    ## 10     1   4   -0.140 2.22  2.22    100
    ## # ℹ 7,250 more rows
…
